/home/lautarop/eclipse-workspace/VaadinBank/src/main/java/epidata/banco/ICuentaCorriente.java
/home/lautarop/eclipse-workspace/VaadinBank/src/main/java/epidata/banco/ICuentaSueldo.java
/home/lautarop/eclipse-workspace/VaadinBank/src/main/java/pujol/CuentaCorriente.java
/home/lautarop/eclipse-workspace/VaadinBank/src/main/java/epidata/banco/ICuentaBancaria.java
/home/lautarop/eclipse-workspace/VaadinBank/src/main/java/pujol/IBanco.java
/home/lautarop/eclipse-workspace/VaadinBank/src/main/java/pujol/Cliente.java
/home/lautarop/eclipse-workspace/VaadinBank/src/main/java/pujol/CuentaBancaria.java
/home/lautarop/eclipse-workspace/VaadinBank/src/main/java/pujol/CuentaSueldo.java
/home/lautarop/eclipse-workspace/VaadinBank/src/main/java/pujol/CuentaInvalidaException.java
/home/lautarop/eclipse-workspace/VaadinBank/src/main/java/pujol/MyUI.java
/home/lautarop/eclipse-workspace/VaadinBank/src/main/java/designs/ClienteFormulario.java
/home/lautarop/eclipse-workspace/VaadinBank/src/main/java/epidata/banco/ICliente.java
/home/lautarop/eclipse-workspace/VaadinBank/src/main/java/pujol/Banco.java
/home/lautarop/eclipse-workspace/VaadinBank/src/main/java/designs/CuentaShow.java
/home/lautarop/eclipse-workspace/VaadinBank/src/main/java/designs/CuentaFormulario.java
/home/lautarop/eclipse-workspace/VaadinBank/src/main/java/pujol/NoExisteClienteException.java
